Number of cores: 4
Number of workers: 1
Dataset: partitions
Number of files: 1
Total pairs processed: 2500
Total time: 20.619212962978054

Number of cores: 4
Number of workers: 1
Dataset: partitions
Number of files: 3
Total pairs processed: 15000
Total time: 59.69649617999676

Number of cores: 4
Number of workers: 1
Dataset: partitions
Number of files: 5
Total pairs processed: 37500
Total time: 130.60242635797476

Number of cores: 4
Number of workers: 1
Dataset: partitions
Number of files: 10
Total pairs processed: 137500
Total time: 433.3905696749862

Number of cores: 4
Number of workers: 1
Dataset: partitions
Number of files: 25
Total pairs processed: 812500
Total time: 2510.4061616499966

